{
  "kind": "collectionType",
  "connection": "default",
  "collectionName": "sources",
  "info": {
    "name": "Source"
  },
  "options": {
    "increments": true,
    "timestamps": true
  },
  "attributes": {
    "title": {
      "type": "string",
      "required": true
    },
    "description": {
      "type": "text"
    },
    "link": {
      "type": "string",
      "required": true,
      "unique": true
    },
    "tags": {
      "collection": "tag"
    },
    "state": {
      "type": "enumeration",
      "enum": [
        "approved",
        "awaiting",
        "rejected"
      ],
      "default": "awaiting",
      "required": true
    },
    "rejectedReason": {
      "type": "string"
    },
    "reports": {
      "default": 0,
      "required": false,
      "type": "integer"
    },
    "verifiedAt": {
      "type": "datetime"
    },
    "approvedAt": {
      "type": "datetime"
    },
    "rejectedAt": {
      "type": "datetime"
    },
    "verifiedBy": {
      "plugin": "users-permissions",
      "model": "user"
    },
    "approvedBy": {
      "plugin": "users-permissions",
      "model": "user"
    },
    "rejectedBy": {
      "plugin": "users-permissions",
      "model": "user"
    },
    "validFrom": {
      "type": "datetime"
    },
    "validTo": {
      "type": "datetime"
    }
  }
}
